Power analyses for typical statistical approaches
…
We see that from N=130 the true positive (=Power) stays over .80 (=80%). So this would be a good option.

We also see that from N=160 the inconclusive results will drop and stay low. So if we don’t want to run the risk of receiving inconclusive results, we might want to opt for this sample size.

These are the exact numbers from the simulation

Code

results_df_l

# A tibble: 2,200 × 6
       n n_sim         BF BF_pos BF_inc BF_neg
   <dbl> <chr>      <dbl>  <dbl>  <dbl>  <dbl>
 1    40 BF_sim1    5.62       1      0      0
 2    40 BF_sim2   29.3        1      0      0
 3    40 BF_sim3   45.8        1      0      0
 4    40 BF_sim4  100.         1      0      0
 5    40 BF_sim5    2.09       0      1      0
 6    40 BF_sim6    2.18       0      1      0
 7    40 BF_sim7    0.516      0      1      0
 8    40 BF_sim8    0.871      0      1      0
 9    40 BF_sim9    2.52       0      1      0
10    40 BF_sim10   1.49       0      1      0
# ℹ 2,190 more rows
…
